<svg width="70" height="50" viewBox="0 0 70 50" fill="none" xmlns="http://www.w3.org/2000/svg">
<rect width="70" height="50" fill="#5FC8FF"/>
<path d="M50 25.5L26.75 38.9234L26.75 12.0766L50 25.5Z" fill="white"/>
</svg>
