<svg width="249" height="47" viewBox="0 0 249 47" fill="none" xmlns="http://www.w3.org/2000/svg">
<path d="M60.675 34.903V14.9562H53.0763V11.7949H71.5891V14.9562H63.9904V34.903H60.675Z" fill="#5FC8FF"/>
<path d="M79.4956 35.3844C77.7929 35.3844 76.2964 35.01 75.0062 34.2611C73.7265 33.5015 72.7271 32.4478 72.008 31.0998C71.2994 29.7411 70.9451 28.1685 70.9451 26.3819C70.9451 24.4883 71.2941 22.8461 71.9921 21.4554C72.7007 20.0646 73.6842 18.9894 74.9427 18.2299C76.2012 17.4703 77.666 17.0905 79.3369 17.0905C81.0819 17.0905 82.5678 17.5024 83.7946 18.3262C85.0214 19.1392 85.9362 20.3 86.539 21.8084C87.1524 23.3169 87.3956 25.1088 87.2687 27.1842H83.9532V25.9647C83.9321 23.9534 83.5513 22.4664 82.8111 21.5035C82.0813 20.5407 80.9656 20.0593 79.4638 20.0593C77.8035 20.0593 76.5555 20.5888 75.72 21.6479C74.8846 22.7071 74.4668 24.2369 74.4668 26.2375C74.4668 28.1417 74.8846 29.6181 75.72 30.6665C76.5555 31.7042 77.7612 32.2231 79.3369 32.2231C80.3734 32.2231 81.267 31.9877 82.0179 31.517C82.7793 31.0356 83.3716 30.3509 83.7946 29.463L87.0466 30.506C86.3803 32.0573 85.3704 33.2608 84.0167 34.1167C82.663 34.9618 81.156 35.3844 79.4956 35.3844ZM73.3881 27.1842V24.5685H85.6189V27.1842H73.3881Z" fill="#5FC8FF"/>
<path d="M88.3045 34.903L94.7134 26.1412L88.4473 17.5719H92.3815L96.6488 23.5255L100.868 17.5719H104.803L98.5365 26.1412L104.961 34.903H101.011L96.6488 28.7569L92.2546 34.903H88.3045Z" fill="#5FC8FF"/>
<path d="M107.481 34.903V17.5719H110.797V24.6488H119.157V17.5719H122.472V34.903H119.157V27.8101H110.797V34.903H107.481Z" fill="#5FC8FF"/>
<path d="M134.364 35.3844C132.65 35.3844 131.164 34.9939 129.906 34.2129C128.647 33.432 127.674 32.3568 126.987 30.9874C126.31 29.6074 125.972 28.0187 125.972 26.2214C125.972 24.4134 126.321 22.8247 127.019 21.4554C127.717 20.0753 128.695 19.0055 129.954 18.2459C131.212 17.4757 132.682 17.0905 134.364 17.0905C136.077 17.0905 137.563 17.481 138.821 18.262C140.08 19.0429 141.053 20.1181 141.74 21.4875C142.428 22.8568 142.771 24.4348 142.771 26.2214C142.771 28.0294 142.422 29.6234 141.724 31.0035C141.037 32.3729 140.064 33.448 138.805 34.229C137.547 34.9993 136.066 35.3844 134.364 35.3844ZM134.364 32.2231C136.003 32.2231 137.224 31.6668 138.028 30.5542C138.842 29.4309 139.25 27.9866 139.25 26.2214C139.25 24.4134 138.837 22.9692 138.012 21.8886C137.198 20.7974 135.982 20.2518 134.364 20.2518C133.253 20.2518 132.338 20.5086 131.619 21.0221C130.9 21.5249 130.366 22.2256 130.017 23.1243C129.668 24.0122 129.493 25.0446 129.493 26.2214C129.493 28.0401 129.906 29.4951 130.731 30.5863C131.556 31.6775 132.767 32.2231 134.364 32.2231Z" fill="#5FC8FF"/>
<path d="M144.671 34.903V32.0626C145.305 32.1803 145.787 32.1642 146.115 32.0145C146.453 31.854 146.701 31.5652 146.86 31.1479C147.029 30.7307 147.172 30.1904 147.288 29.5271C147.468 28.5536 147.622 27.4464 147.748 26.2054C147.886 24.9537 148.008 23.6004 148.113 22.1454C148.219 20.6905 148.314 19.166 148.399 17.5719H160.709V34.903H157.378V20.7332H151.381C151.318 21.5784 151.244 22.4771 151.159 23.4292C151.085 24.3706 151 25.3067 150.905 26.2375C150.81 27.1682 150.71 28.0401 150.604 28.8532C150.498 29.6662 150.387 30.3616 150.271 30.9393C150.059 32.0947 149.747 33.0148 149.335 33.6994C148.933 34.3734 148.362 34.8067 147.622 34.9993C146.881 35.2025 145.898 35.1704 144.671 34.903Z" fill="#5FC8FF"/>
<path d="M172.597 35.3844C170.884 35.3844 169.398 34.9939 168.14 34.2129C166.881 33.432 165.908 32.3568 165.221 30.9874C164.544 29.6074 164.205 28.0187 164.205 26.2214C164.205 24.4134 164.554 22.8247 165.252 21.4554C165.95 20.0753 166.929 19.0055 168.187 18.2459C169.446 17.4757 170.916 17.0905 172.597 17.0905C174.31 17.0905 175.796 17.481 177.055 18.262C178.313 19.0429 179.286 20.1181 179.974 21.4875C180.661 22.8568 181.005 24.4348 181.005 26.2214C181.005 28.0294 180.656 29.6234 179.958 31.0035C179.27 32.3729 178.298 33.448 177.039 34.229C175.781 34.9993 174.3 35.3844 172.597 35.3844ZM172.597 32.2231C174.236 32.2231 175.458 31.6668 176.262 30.5542C177.076 29.4309 177.483 27.9866 177.483 26.2214C177.483 24.4134 177.071 22.9692 176.246 21.8886C175.432 20.7974 174.215 20.2518 172.597 20.2518C171.487 20.2518 170.572 20.5086 169.853 21.0221C169.134 21.5249 168.6 22.2256 168.251 23.1243C167.902 24.0122 167.727 25.0446 167.727 26.2214C167.727 28.0401 168.14 29.4951 168.964 30.5863C169.789 31.6775 171 32.2231 172.597 32.2231Z" fill="#5FC8FF"/>
<path d="M184.491 34.903V17.5719H196.547V20.7332H187.806V34.903H184.491Z" fill="#5FC8FF"/>
<path d="M213.985 17.5719V34.903H210.796V22.8515L202.23 34.903H199.533V17.5719H202.722V29.3827L211.304 17.5719H213.985Z" fill="#5FC8FF"/>
<path d="M218.402 34.903L218.418 17.5719H221.781V25.9165L228.507 17.5719H232.727L225.62 26.2375L233.456 34.903H228.951L221.781 26.5584V34.903H218.402Z" fill="#5FC8FF"/>
<path d="M239.894 35.3844C238.625 35.3844 237.562 35.149 236.706 34.6783C235.849 34.1969 235.199 33.5657 234.755 32.7847C234.321 31.9931 234.104 31.1265 234.104 30.1851C234.104 29.3078 234.257 28.5376 234.564 27.8743C234.871 27.211 235.326 26.6493 235.928 26.1893C236.531 25.7186 237.272 25.3388 238.149 25.05C238.911 24.8253 239.773 24.6274 240.735 24.4562C241.698 24.285 242.707 24.1246 243.765 23.9748C244.833 23.825 245.891 23.6752 246.938 23.5255L245.732 24.1995C245.753 22.8408 245.468 21.8352 244.875 21.1826C244.294 20.5193 243.289 20.1876 241.861 20.1876C240.962 20.1876 240.138 20.4016 239.387 20.8295C238.636 21.2468 238.112 21.9421 237.816 22.9157L234.723 21.9528C235.146 20.4658 235.95 19.2836 237.134 18.4064C238.329 17.5291 239.915 17.0905 241.893 17.0905C243.427 17.0905 244.759 17.358 245.891 17.8929C247.033 18.4171 247.868 19.2516 248.397 20.3963C248.672 20.9633 248.841 21.5624 248.905 22.1935C248.968 22.8247 249 23.5041 249 24.2316V34.903H246.065V30.9393L246.636 31.4528C245.928 32.7794 245.024 33.769 243.924 34.4216C242.834 35.0635 241.491 35.3844 239.894 35.3844ZM240.481 32.6403C241.423 32.6403 242.232 32.4745 242.908 32.1429C243.585 31.8005 244.13 31.3672 244.542 30.843C244.955 30.3188 245.224 29.7732 245.351 29.2062C245.531 28.6927 245.632 28.115 245.653 27.4731C245.685 26.8312 245.7 26.3177 245.7 25.9326L246.779 26.3337C245.732 26.4942 244.78 26.6386 243.924 26.767C243.067 26.8954 242.29 27.0238 241.592 27.1522C240.904 27.2698 240.291 27.4143 239.752 27.5854C239.297 27.7459 238.89 27.9385 238.53 28.1631C238.181 28.3878 237.901 28.6606 237.689 28.9815C237.488 29.3025 237.388 29.693 237.388 30.153C237.388 30.6023 237.499 31.0195 237.721 31.4047C237.943 31.7791 238.282 32.0787 238.736 32.3033C239.191 32.528 239.773 32.6403 240.481 32.6403Z" fill="#5FC8FF"/>
<path fill-rule="evenodd" clip-rule="evenodd" d="M33.3952 18.8572L28.7987 23.4537L33.3952 28.0502L37.9917 23.4537L33.3952 18.8572ZM34.3219 17.0038C33.8101 16.492 32.9803 16.492 32.4685 17.0038L26.9453 22.527C26.4335 23.0388 26.4335 23.8686 26.9453 24.3804L32.4685 29.9035C32.9803 30.4153 33.8101 30.4153 34.3219 29.9035L39.845 24.3804C40.3568 23.8686 40.3568 23.0388 39.845 22.527L34.3219 17.0038Z" fill="#3A4548"/>
<path fill-rule="evenodd" clip-rule="evenodd" d="M11.3082 19.0496L6.71168 23.6461L11.3082 28.2425L15.9047 23.6461L11.3082 19.0496ZM12.2348 17.1962C11.7231 16.6844 10.8933 16.6844 10.3815 17.1962L4.85832 22.7194C4.34653 23.2312 4.34653 24.0609 4.85832 24.5727L10.3815 30.0959C10.8933 30.6077 11.7231 30.6077 12.2348 30.0959L17.758 24.5727C18.2698 24.061 18.2698 23.2312 17.758 22.7194L12.2348 17.1962Z" fill="#3A4548"/>
<path fill-rule="evenodd" clip-rule="evenodd" d="M23.7621 1.85336C24.7857 0.82978 26.4453 0.829779 27.4688 1.85336L33.0289 7.41346C33.5407 7.92525 33.5407 8.75503 33.0289 9.26682C32.5171 9.77861 31.6874 9.77861 31.1756 9.26682L25.6155 3.70673L14.9586 14.3636L20.5187 19.9237C21.0305 20.4355 21.0305 21.2652 20.5187 21.777C20.0069 22.2888 19.1772 22.2888 18.6654 21.777L13.1053 16.2169C12.0817 15.1934 12.0817 13.5338 13.1053 12.5102L23.7621 1.85336Z" fill="#5FC8FF"/>
<path fill-rule="evenodd" clip-rule="evenodd" d="M31.4471 34.4383C32.4707 33.4147 32.4707 31.7552 31.4471 30.7316L25.887 25.1715C25.3752 24.6597 24.5454 24.6597 24.0336 25.1715C23.5218 25.6833 23.5218 26.5131 24.0336 27.0249L29.5937 32.585L18.9369 43.2418L13.3768 37.6817C12.865 37.1699 12.0352 37.1699 11.5234 37.6817C11.0116 38.1935 11.0116 39.0233 11.5234 39.5351L17.0835 45.0952C18.1071 46.1188 19.7667 46.1188 20.7902 45.0952L31.4471 34.4383Z" fill="#5FC8FF"/>
<path fill-rule="evenodd" clip-rule="evenodd" d="M34.1134 11.6429C34.4973 12.0267 34.4973 12.649 34.1134 13.0329L1.67791 45.4684C1.29406 45.8523 0.671727 45.8523 0.287882 45.4684C-0.0959618 45.0846 -0.0959618 44.4622 0.287883 44.0784L32.7234 11.6429C33.1073 11.259 33.7296 11.259 34.1134 11.6429Z" fill="#3A4548"/>
</svg>
